<svg width="150" height="151" viewBox="0 0 150 151" fill="none" xmlns="http://www.w3.org/2000/svg">
<rect y="0.663818" width="150" height="150" rx="4" fill="#EC3E5C"/>
<path d="M115.832 44.2292C110.839 44.2292 106.755 48.3138 106.755 53.3061C106.755 54.8378 107.18 56.256 107.833 57.5325L94.5863 66.978C92.9695 65.5598 90.8988 64.6521 88.5729 64.6521C85.6229 64.6521 83.0133 66.0987 81.3681 68.2828L65.7674 63.6026C65.8241 63.2055 65.8808 62.8084 65.8808 62.3829C65.8808 57.3906 61.7962 53.3061 56.804 53.3061C51.8117 53.3061 47.7555 57.3906 47.7555 62.3829C47.7555 65.1059 48.9752 67.517 50.9041 69.1905L36.0408 98.8887C35.4167 98.7469 34.7927 98.6902 34.1403 98.6902C29.148 98.6902 25.0635 102.775 25.0635 107.767C25.0635 112.759 29.148 116.844 34.1403 116.844C39.1326 116.844 43.2171 112.759 43.2171 107.767C43.2171 105.044 41.9974 102.633 40.0686 100.959L54.9319 71.2612C55.5559 71.403 56.18 71.4597 56.8324 71.4597C59.7823 71.4597 62.3919 70.0131 64.0371 67.829L79.6379 72.5092C79.5811 72.9063 79.5244 73.3034 79.5244 73.7289C79.5244 78.7212 83.609 82.8057 88.6012 82.8057C93.5935 82.8057 97.6781 78.7212 97.6781 73.7289C97.6781 72.6794 97.4511 71.6866 97.1391 70.7506L110.925 60.9079C112.343 61.844 114.045 62.3829 115.86 62.3829C120.852 62.3829 124.937 58.2983 124.937 53.3061C124.937 48.3138 120.824 44.2292 115.832 44.2292ZM34.1403 112.305C31.6442 112.305 29.6019 110.263 29.6019 107.767C29.6019 105.271 31.6442 103.229 34.1403 103.229C36.6364 103.229 38.6787 105.271 38.6787 107.767C38.6787 110.263 36.6364 112.305 34.1403 112.305ZM56.8324 66.9213C54.3362 66.9213 52.2939 64.879 52.2939 62.3829C52.2939 59.8868 54.3362 57.8445 56.8324 57.8445C59.3285 57.8445 61.3708 59.8868 61.3708 62.3829C61.3708 64.879 59.3285 66.9213 56.8324 66.9213ZM88.6012 78.2673C86.1051 78.2673 84.0628 76.225 84.0628 73.7289C84.0628 71.2328 86.1051 69.1905 88.6012 69.1905C91.0974 69.1905 93.1396 71.2328 93.1396 73.7289C93.1396 76.225 91.0974 78.2673 88.6012 78.2673ZM115.832 57.8445C113.336 57.8445 111.293 55.8022 111.293 53.3061C111.293 50.8099 113.336 48.7677 115.832 48.7677C118.328 48.7677 120.37 50.8099 120.37 53.3061C120.37 55.8022 118.328 57.8445 115.832 57.8445Z" fill="#EDEFF2"/>
</svg>
