<svg width="150" height="151" viewBox="0 0 150 151" fill="none" xmlns="http://www.w3.org/2000/svg">
<rect y="0.663574" width="150" height="150" rx="4" fill="#EC3E5C"/>
<path d="M120.315 82.0693C119.372 72.5913 115.125 63.6468 108.375 56.8973C102.611 51.1326 95.5331 47.4194 88.1066 45.7782V40.5468C91.1429 39.7878 93.3995 37.0388 93.3995 33.7769C93.3995 29.9406 90.2607 26.8018 86.4244 26.8018H71.6536C67.8173 26.8018 64.6785 29.9406 64.6785 33.7769C64.6785 37.0388 66.9351 39.7878 69.9713 40.5468V45.7782C62.5654 47.4399 55.5288 51.1326 49.764 56.8973C48.5126 58.1487 47.3433 59.4822 46.2765 60.8567C46.2149 60.8567 46.1739 60.8567 46.1123 60.8567H31.5262C30.3978 60.8567 29.4747 61.7799 29.4747 62.9082C29.4747 64.0365 30.3978 64.9597 31.5262 64.9597H43.5069C42.0093 67.4831 40.799 70.1295 39.8758 72.8375H17.5349C16.4066 72.8375 15.4834 73.7607 15.4834 74.889C15.4834 76.0173 16.4066 76.9405 17.5349 76.9405H38.7064C38.1115 79.5459 37.7832 82.1718 37.6807 84.8183H28.613C27.4847 84.8183 26.5615 85.7415 26.5615 86.8698C26.5615 87.9981 27.4847 88.9213 28.613 88.9213H37.7422C37.9063 91.5677 38.3371 94.2142 39.0141 96.7991H25.7409C24.6126 96.7991 23.6894 97.7222 23.6894 98.8506C23.6894 99.9789 24.6126 100.902 25.7409 100.902H40.3476C42.3581 106.236 45.4969 111.221 49.7845 115.488C56.534 122.238 65.4991 126.484 74.9975 127.428C76.3515 127.572 77.7055 127.633 79.0595 127.633C87.0604 127.633 94.9586 125.315 101.667 120.945C102.611 120.33 102.877 119.058 102.262 118.114C101.647 117.17 100.375 116.904 99.4309 117.519C84.7422 127.079 65.0888 125.007 52.6772 112.596C38.1115 98.03 38.1115 74.3556 52.6772 59.7899C67.2428 45.2243 90.9172 45.2243 105.483 59.7899C117.874 72.181 119.946 91.8344 110.427 106.503C109.812 107.446 110.078 108.718 111.022 109.334C111.966 109.949 113.238 109.683 113.853 108.739C118.961 100.882 121.238 91.4241 120.315 82.0693ZM68.802 33.7769C68.802 32.1972 70.0944 30.9048 71.6741 30.9048H86.4449C88.0246 30.9048 89.317 32.1972 89.317 33.7769C89.317 35.3565 88.0246 36.649 86.4449 36.649H86.0756H72.0434H71.6741C70.0739 36.649 68.802 35.3565 68.802 33.7769ZM74.0743 45.0601V40.752H84.0036V45.0601C80.7212 44.6704 77.3773 44.6704 74.0743 45.0601Z" fill="#EDEFF2"/>
<path d="M106.939 111.98C106.406 111.98 105.872 112.206 105.483 112.575C105.093 112.965 104.888 113.478 104.888 114.032C104.888 114.565 105.113 115.099 105.483 115.488C105.872 115.878 106.385 116.083 106.939 116.083C107.473 116.083 108.006 115.858 108.396 115.488C108.786 115.099 108.991 114.586 108.991 114.032C108.991 113.498 108.765 112.965 108.396 112.575C108.006 112.206 107.473 111.98 106.939 111.98Z" fill="#EDEFF2"/>
<path d="M79.0796 54.3538C61.5392 54.3538 47.2607 68.6322 47.2607 86.1726C47.2607 103.713 61.5392 118.012 79.0796 118.012C96.6199 118.012 110.898 103.733 110.898 86.1931C110.898 68.6527 96.6199 54.3538 79.0796 54.3538ZM79.0796 113.909C63.7959 113.909 51.3637 101.477 51.3637 86.1931C51.3637 70.9094 63.7959 58.4568 79.0796 58.4568C94.3633 58.4568 106.795 70.9094 106.795 86.1931C106.795 101.477 94.3633 113.909 79.0796 113.909Z" fill="#EDEFF2"/>
<path d="M92.0662 70.3145L81.9113 80.4695C81.0702 80.0592 80.106 79.813 79.1007 79.813C78.0955 79.813 77.1313 80.0592 76.2902 80.4695L71.7358 75.9151C70.9358 75.115 69.6433 75.115 68.8432 75.9151C68.0431 76.7152 68.0431 78.0077 68.8432 78.8077L73.3976 83.3621C72.9873 84.2032 72.7411 85.1674 72.7411 86.1726C72.7411 89.6807 75.5927 92.5528 79.1213 92.5528C82.6293 92.5528 85.5014 89.7012 85.5014 86.1726C85.5014 85.1674 85.2553 84.2032 84.845 83.3621L94.7127 73.4944L95.0204 73.1866C95.8205 72.3865 95.8205 71.0941 95.0204 70.294C94.2203 69.4939 92.8663 69.5144 92.0662 70.3145ZM79.0802 88.4703C77.8288 88.4703 76.8031 87.4446 76.8031 86.1932C76.8031 84.9417 77.8288 83.916 79.0802 83.916C80.3316 83.916 81.3574 84.9417 81.3574 86.1932C81.3574 87.4446 80.3316 88.4703 79.0802 88.4703Z" fill="#EDEFF2"/>
<path d="M101.009 84.1619H99.1013C97.973 84.1619 97.0498 85.085 97.0498 86.2134C97.0498 87.3417 97.973 88.2649 99.1013 88.2649H101.009C102.138 88.2649 103.061 87.3417 103.061 86.2134C103.061 85.085 102.138 84.1619 101.009 84.1619Z" fill="#EDEFF2"/>
<path d="M59.0356 84.121H57.1277C55.9993 84.121 55.0762 85.0441 55.0762 86.1725C55.0762 87.3008 55.9993 88.224 57.1277 88.224H59.0356C60.1639 88.224 61.0871 87.3008 61.0871 86.1725C61.0871 85.0441 60.1844 84.121 59.0356 84.121Z" fill="#EDEFF2"/>
<path d="M79.1003 68.2013C80.2287 68.2013 81.1518 67.2782 81.1518 66.1498V64.2419C81.1518 63.1136 80.2287 62.1904 79.1003 62.1904C77.972 62.1904 77.0488 63.1136 77.0488 64.2419V66.1498C77.0488 67.2782 77.972 68.2013 79.1003 68.2013Z" fill="#EDEFF2"/>
<path d="M79.0583 104.164C77.93 104.164 77.0068 105.087 77.0068 106.216V108.124C77.0068 109.252 77.93 110.175 79.0583 110.175C80.1867 110.175 81.1098 109.252 81.1098 108.124V106.216C81.1098 105.087 80.1867 104.164 79.0583 104.164Z" fill="#EDEFF2"/>
<path d="M17.5339 96.7996C17.0005 96.7996 16.4671 97.0252 16.0774 97.3945C15.6876 97.7638 15.4824 98.3177 15.4824 98.8511C15.4824 99.3845 15.7081 99.9178 16.0774 100.308C16.4466 100.697 16.98 100.903 17.5339 100.903C18.0878 100.903 18.6007 100.677 18.9905 100.308C19.3803 99.9178 19.5854 99.405 19.5854 98.8511C19.5854 98.3177 19.3598 97.7843 18.9905 97.3945C18.6007 97.0252 18.0673 96.7996 17.5339 96.7996Z" fill="#EDEFF2"/>
</svg>
